<svg xmlns="http://www.w3.org/2000/svg" width="38.5" height="44" viewBox="0 0 38.5 44">
    <path id="user-solid" d="M19.25,22a11,11,0,1,0-11-11A11,11,0,0,0,19.25,22Zm7.7,2.75H25.515a14.96,14.96,0,0,1-12.53,0H11.55A11.553,11.553,0,0,0,0,36.3v3.575A4.126,4.126,0,0,0,4.125,44h30.25A4.126,4.126,0,0,0,38.5,39.875V36.3A11.553,11.553,0,0,0,26.95,24.75Z" fill="#79b942" />
</svg>
